…
avg_weekday <- tidy_dataset_2 %>%
    group_by(weekday, interval) %>%
    summarise(average = mean(steps,na.rm = TRUE))

avg_weekday
```

```
## # A tibble: 2,016 x 3
## # Groups:   weekday [7]
##    weekday interval average
##    <chr>   <time>     <dbl>
##  1 Friday  00'00"         0
##  2 Friday  05'00"         0
##  3 Friday  10'00"         0
##  4 Friday  15'00"         0
##  5 Friday  20'00"         0
##  6 Friday  25'00"         0
##  7 Friday  30'00"         0
##  8 Friday  35'00"         0
##  9 Friday  40'00"         0
## 10 Friday  45'00"         0
## # ... with 2,006 more rows
```
…
